Non-post-secondary graduates – Pathways taken after high school - Northwest
…
χ2=312.649 · df=16 · Cramer's V=0.054 · p=0.000 

master.original %>%
  filter(grad.year.1 != "After 2023") %>%
  filter(ps.grad == "No") %>%
  filter(RaceEthnicity != "Unknown") %>%
  select(grad.year.1, RaceEthnicity) 

# A tibble: 26,708 × 2
   grad.year.1                        RaceEthnicity
   <chr>                              <chr>        
 1 Meaningful emp region              White        
 2 Meaningful emp region              White        
 3 Attending ps                       White        
 4 Not meaningful, not attending ps   White        
 5 Not meaningful, not attending ps   White        
 6 Meaningful emp region              White        
 7 Attending ps                       White        
 8 No MN emp record, not attending ps White        
 9 Attending ps                       Asian/PI     
10 Attending ps                       White        
# ℹ 26,698 more rows
…
χ2=204.451 · df=16 · Cramer's V=0.048 · p=0.000 

master.original %>%
  filter(grad.year.5 != "After 2023") %>%
  filter(ps.grad == "No") %>%
  filter(RaceEthnicity != "Unknown") %>%
  select(grad.year.5, RaceEthnicity) 

# A tibble: 22,261 × 2
   grad.year.5                        RaceEthnicity
   <chr>                              <chr>        
 1 Meaningful emp MN                  White        
 2 Not meaningful, not attending ps   White        
 3 Meaningful emp region              White        
 4 Meaningful emp region              White        
 5 Meaningful emp region              White        
 6 Meaningful emp region              White        
 7 No MN emp record, not attending ps White        
 8 No MN emp record, not attending ps Asian/PI     
 9 Meaningful emp region              White        
10 No MN emp record, not attending ps White        
# ℹ 22,251 more rows
…
χ2=117.106 · df=12 · Cramer's V=0.056 · p=0.000 

master.original %>%
  filter(grad.year.10 != "After 2023") %>%
  filter(ps.grad == "No") %>%
  filter(RaceEthnicity != "Unknown") %>%
  select(grad.year.10, RaceEthnicity) 

# A tibble: 12,597 × 2
   grad.year.10                       RaceEthnicity
   <chr>                              <chr>        
 1 Meaningful emp region              White        
 2 No MN emp record, not attending ps White        
 3 Meaningful emp region              White        
 4 Meaningful emp region              White        
 5 No MN emp record, not attending ps White        
 6 No MN emp record, not attending ps White        
 7 Meaningful emp MN                  White        
 8 Meaningful emp region              White        
 9 No MN emp record, not attending ps White        
10 Meaningful emp region              White        
# ℹ 12,587 more rows
…
χ2=470.082 · df=4 · Cramer's V=0.125 · p=0.000 

master.original %>%
  filter(grad.year.1 != "After 2023") %>%
  filter(ps.grad == "No") %>%
  select(grad.year.1, economic.status) 

# A tibble: 30,160 × 2
   grad.year.1                        economic.status
   <chr>                                        <dbl>
 1 Meaningful emp region                            0
 2 Meaningful emp region                            0
 3 Attending ps                                     0
 4 Not meaningful, not attending ps                 0
 5 Not meaningful, not attending ps                 0
 6 Meaningful emp region                            0
 7 Attending ps                                     0
 8 No MN emp record, not attending ps               0
 9 Attending ps                                     1
10 Attending ps                                     0
# ℹ 30,150 more rows
…
χ2=158.281 · df=4 · Cramer's V=0.084 · p=0.000 

master.original %>%
  filter(grad.year.5 != "After 2023") %>%
  filter(ps.grad == "No") %>%
  select(grad.year.5, economic.status) 

# A tibble: 22,261 × 2
   grad.year.5                        economic.status
   <chr>                                        <dbl>
 1 Meaningful emp MN                                0
 2 Not meaningful, not attending ps                 0
 3 Meaningful emp region                            0
 4 Meaningful emp region                            0
 5 Meaningful emp region                            0
 6 Meaningful emp region                            0
 7 No MN emp record, not attending ps               0
 8 No MN emp record, not attending ps               1
 9 Meaningful emp region                            0
10 No MN emp record, not attending ps               0
# ℹ 22,251 more rows
…
χ2=55.680 · df=3 · Cramer's V=0.066 · p=0.000 

master.original %>%
  filter(grad.year.10 != "After 2023") %>%
  filter(ps.grad == "No") %>%
  select(grad.year.10, economic.status) 

# A tibble: 12,597 × 2
   grad.year.10                       economic.status
   <chr>                                        <dbl>
 1 Meaningful emp region                            0
 2 No MN emp record, not attending ps               0
 3 Meaningful emp region                            0
 4 Meaningful emp region                            0
 5 No MN emp record, not attending ps               0
 6 No MN emp record, not attending ps               0
 7 Meaningful emp MN                                1
 8 Meaningful emp region                            0
 9 No MN emp record, not attending ps               0
10 Meaningful emp region                            1
# ℹ 12,587 more rows
…
χ2=794.518 · df=4 · Cramer's V=0.162 · p=0.000 

master.original %>%
  filter(grad.year.1 != "After 2023") %>%
  filter(ps.grad == "No") %>%
  select(grad.year.1, SpecialEdStatus) 

# A tibble: 30,160 × 2
   grad.year.1                        SpecialEdStatus
   <chr>                                        <dbl>
 1 Meaningful emp region                            1
 2 Meaningful emp region                            0
 3 Attending ps                                     0
 4 Not meaningful, not attending ps                 0
 5 Not meaningful, not attending ps                 0
 6 Meaningful emp region                            0
 7 Attending ps                                     0
 8 No MN emp record, not attending ps               0
 9 Attending ps                                     1
10 Attending ps                                     0
# ℹ 30,150 more rows
…
χ2=165.822 · df=4 · Cramer's V=0.086 · p=0.000 

master.original %>%
  filter(grad.year.5 != "After 2023") %>%
  filter(ps.grad == "No") %>%
  select(grad.year.5, SpecialEdStatus) 

# A tibble: 22,261 × 2
   grad.year.5                        SpecialEdStatus
   <chr>                                        <dbl>
 1 Meaningful emp MN                                1
 2 Not meaningful, not attending ps                 0
 3 Meaningful emp region                            0
 4 Meaningful emp region                            0
 5 Meaningful emp region                            0
 6 Meaningful emp region                            0
 7 No MN emp record, not attending ps               0
 8 No MN emp record, not attending ps               1
 9 Meaningful emp region                            0
10 No MN emp record, not attending ps               0
# ℹ 22,251 more rows
…
χ2=60.566 · df=3 · Cramer's V=0.069 · p=0.000 

master.original %>%
  filter(grad.year.10 != "After 2023") %>%
  filter(ps.grad == "No") %>%
  select(grad.year.10, SpecialEdStatus) 

# A tibble: 12,597 × 2
   grad.year.10                       SpecialEdStatus
   <chr>                                        <dbl>
 1 Meaningful emp region                            1
 2 No MN emp record, not attending ps               0
 3 Meaningful emp region                            0
 4 Meaningful emp region                            0
 5 No MN emp record, not attending ps               0
 6 No MN emp record, not attending ps               0
 7 Meaningful emp MN                                0
 8 Meaningful emp region                            0
 9 No MN emp record, not attending ps               0
10 Meaningful emp region                            0
# ℹ 12,587 more rows
…
